<?xml version="1.0" encoding="utf-8"?>
<!-- Generator: Adobe Illustrator 18.1.0, SVG Export Plug-In . SVG Version: 6.00 Build 0)  -->
<svg version="1.1" id="Layer_1" xmlns="http://www.w3.org/2000/svg" xmlns:xlink="http://www.w3.org/1999/xlink" x="0px" y="0px"
	 viewBox="-118 209.5 271.5 82.5" enable-background="new -118 209.5 271.5 82.5" xml:space="preserve">
<g id="Layer_1_1_">
</g>
<g id="Layer_2">
	<g>
		<path fill="#231F20" d="M-105.9,269.7h8.2v-29.9h11.4v-7.6h-31v7.6h11.4L-105.9,269.7L-105.9,269.7z M-48,244.7v-0.1
			c0-7.7-5.3-12.4-14.1-12.4h-16.3v37.4h8.2v-12h5.6l8,12h9.6l-9.1-13.4C-51.3,254.6-48,250.8-48,244.7z M-56.4,245.2
			c0,3.2-2.3,5.3-6.3,5.3h-7.5v-10.7h7.3c4,0,6.5,1.8,6.5,5.3L-56.4,245.2L-56.4,245.2z M18.2,259.4v-0.1c0-5-2.7-7.5-7-9.2
			c2.7-1.5,4.9-3.9,4.9-8.1V242c0-5.9-4.7-9.7-12.4-9.7h-17.4v37.4H4.1C12.6,269.7,18.2,266.3,18.2,259.4z M-5.7,239.5h8.1
			c3.5,0,5.4,1.4,5.4,3.8v0.1c0,2.8-2.3,4-5.9,4h-7.6C-5.7,247.4-5.7,239.5-5.7,239.5z M-5.7,254.3h9.5c4.2,0,6.1,1.6,6.1,4.1v0.1
			c0,2.8-2.2,4.1-5.8,4.1h-9.8L-5.7,254.3L-5.7,254.3z M56.8,262.4H36.4v-7.9h17.7v-7.3H36.4v-7.6h20.1v-7.3H28.2v37.4h28.5
			L56.8,262.4L56.8,262.4z M83.6,270.3c7.2,0,11.5-2.6,15.4-6.7l-5.3-5.3c-2.9,2.7-5.6,4.4-9.8,4.4c-6.4,0-10.9-5.3-10.9-11.8v-0.1
			c0-6.4,4.5-11.7,10.9-11.7c3.7,0,6.7,1.6,9.6,4.2l5.2-6c-3.5-3.4-7.7-5.8-14.8-5.8c-11.5,0-19.5,8.7-19.5,19.4v0.1
			C64.4,261.8,72.6,270.3,83.6,270.3z M116.6,261.3h15.8l3.4,8.4h8.6l-16-37.7h-7.6l-16,37.7h8.4L116.6,261.3z M124.5,241.9l5,12.1
			h-10L124.5,241.9z M-36.4,282.2h8.4v-62.4h-8.4V282.2z"/>
	</g>
</g>
<g>
	<path d="M153.2,267c0,1.6-1.2,2.8-2.8,2.8c-1.6,0-2.9-1.2-2.9-2.8c0-1.5,1.3-2.8,2.9-2.8C151.9,264.2,153.2,265.4,153.2,267z
		 M148.2,267c0,1.2,0.9,2.2,2.2,2.2c1.2,0,2.1-1,2.1-2.2c0-1.2-0.9-2.2-2.1-2.2C149.1,264.7,148.2,265.7,148.2,267z M149.9,268.4
		h-0.6v-2.8c0.3-0.1,0.6-0.1,1.1-0.1c0.5,0,0.8,0.1,1,0.2c0.2,0.1,0.3,0.3,0.3,0.6c0,0.3-0.2,0.5-0.6,0.6v0c0.3,0.1,0.4,0.3,0.5,0.7
		c0.1,0.4,0.1,0.6,0.2,0.7H151c-0.1-0.1-0.1-0.4-0.2-0.7c0-0.3-0.2-0.4-0.6-0.4h-0.3V268.4z M149.9,266.8h0.3c0.4,0,0.6-0.1,0.6-0.4
		c0-0.3-0.2-0.4-0.6-0.4c-0.2,0-0.3,0-0.4,0V266.8z"/>
</g>
</svg>
